!date|!transaction_id|!tokens|!token_prices|!total_cost
2022-02-20|=concat("t_", text(incFrom(1)))|btc,eth,dai|38341.88,2643.77,1.0003|=sum(spread(split(D2, ",")))
2022-02-21|=^^|bch,eth,dai|304.38,2621.15,1.0001|=E^+sum(spread(split(D3, ",")))
2022-02-22|=^^|sol,eth,dai|85,2604.17,0.9997|=^^
!fee|!cost_threshold|||
0.09|10000|||
!adjusted_cost||||
=E^v+(E^v*A6)||||
!cost_too_high|||=8/2|
=text(bte(@adjusted_cost<1>, @cost_threshold<1>))||||